Public · PhyloNetworks.jl
…
julia> expectations(ancStates)
31×2 DataFrame
 Row │ nodeNumber  condExpectation
     │ Int64       Float64
─────┼─────────────────────────────
   1 │         -5         1.32139
   2 │         -8         1.03258
   3 │         -7         1.41575
   4 │         -6         1.39417
   5 │         -4         1.39961
   6 │         -3         1.51341
   7 │        -13         5.3192
   8 │        -12         4.51176
  ⋮  │     ⋮              ⋮
  25 │         10         6.94985
  26 │         11         4.78323
  27 │         12         5.33016
  28 │          1        -0.122604
  29 │         16         0.73989
  30 │          9         4.84236
  31 │          3         1.0695
                    16 rows omitted
…
julia> expectationsPlot(ancStates) # format the ancestral states
31×2 DataFrame
 Row │ nodeNumber  PredInt
     │ Int64       Abstract… 
─────┼───────────────────────
   1 │         -5  1.32
   2 │         -8  1.03
   3 │         -7  1.42
   4 │         -6  1.39
   5 │         -4  1.4
   6 │         -3  1.51
   7 │        -13  5.32
   8 │        -12  4.51
  ⋮  │     ⋮           ⋮
  25 │         10  6.95
  26 │         11  4.78
  27 │         12  5.33
  28 │          1  -0.12
  29 │         16  0.74
  30 │          9  4.84
  31 │          3  1.07
              16 rows omitted

julia> using PhyloPlots # next: plot ancestral states on the tree

julia> plot(phy, :RCall, nodeLabel = expectationsPlot(ancStates));

julia> predintPlot(ancStates) # prediction intervals, in data frame, useful to plot
31×2 DataFrame
 Row │ nodeNumber  PredInt
     │ Int64       Abstract…
─────┼───────────────────────────
   1 │         -5  [-0.34, 2.98]
   2 │         -8  [-0.59, 2.65]
   3 │         -7  [-0.14, 2.97]
   4 │         -6  [-0.11, 2.9]
   5 │         -4  [-0.1, 2.9]
   6 │         -3  [-0.22, 3.25]
   7 │        -13  [3.92, 6.72]
   8 │        -12  [2.89, 6.13]
  ⋮  │     ⋮             ⋮
  25 │         10  6.95
  26 │         11  4.78
  27 │         12  5.33
  28 │          1  -0.12
  29 │         16  0.74
  30 │          9  4.84
  31 │          3  1.07
                  16 rows omitted
…
